\begin{tikzpicture}[automata]
    \node[minus, initial] (s0) {};
    \node[plus] (s1) [right of=s0] {};

    \draw (s0)
        % edge[loop above] (s0)
        edge[bend left] (s1);
    \path (s0) -- node[plus, scale=0.5] {} (s1);
    \draw (s1)
        % edge[loop above] (s1)
        edge[bend left] (s0);
\end{tikzpicture}