\begin{tikzpicture}[scale=3]
    \foreach \x/\name in {0/G, 1/G'}{
        \fill[myGreen, rounded corners=10pt] 
            (\x - 3/8, 0.15)
            rectangle 
            (\x + 3/8, -3.25);
        \node[red] at (\x - 0.25, 0) {\I};
        \node[blue] at (\x + 0.25, 0) {\II};
        \node at (\x, 0.25) {$\name$};
    };

    \tikzmath{
        \lasty = 0.2;
        int \player;
        \player = 0;
        int \counter;
        int \prevcounter;
        \counter = 0;
        for \y in {0.5, 0.9, 1.4, 1.6, 2.1, 2.7}{
            \prevcounter = \counter - 1;
            if \player < 0.5 then{  % Don't add a space here!
                {
                    \draw[very thick, red] (0, -\y) -- node[left] {$s_\counter$} (0, -\lasty);
                };
                if \prevcounter > 0 then{
                    {
                        \draw[very thick, blue] (1, -\y) -- node[right] {$s'_\prevcounter$} (1, -\lasty);
                        \draw[->, dashed] (0.9, -0.5 * \y - 0.5 * \lasty ) -- ++(-0.8, 0);
                    };
                };
            } else{
                {
                    \draw[very thick, blue] (0, -\y) -- node[right] {$s_\counter$} (0, -\lasty);
                };
                if \prevcounter == 0 then{
                    {
                        \draw[very thick, red] (1, -\y) -- node[left] {$s'_\prevcounter$} (1, -0.2);
                        \draw[<-, dashed] (0.8, -0.5 * \y - 0.5 * 0.2 ) -- ++(-0.7, 0);
                    };
                } else{
                    {
                        \draw[very thick, red] (1, -\y) -- node[left] {$s'_\prevcounter$} (1, -\lasty);
                        \draw[<-, dashed] (0.8, -0.5 * \y - 0.5 * \lasty ) -- ++(-0.6, 0);
                    };
                };
            };
            \lasty = \y;
            \player = 1 - \player;
            \counter = \counter + 1;
        };
    };

    \draw[very thick, line cap=round, dash pattern=on 0 off 1cm/6] (0, -2.7) -- (0, -3);
    \draw[very thick, line cap=round, dash pattern=on 0 off 1cm/6] (1, -2.7) -- (1, -3);
    \draw[->] (1.9, -0.25) -- node[above] {swap 0 for 1} (1.05, -0.25);
    \draw (-0.5, -3) -- (1.5, -3);
    \node at (0, -3 - 1/8) {$x$};
    \node at (1, -3 - 1/8) {$y$};


\end{tikzpicture}